Coordinates for manual segmentation in ROI03


-----------------------------
Revision

X = small leakage, segmentation result is still better than without clicking the label
Y = areas that need to be added/removed manually
Z = areas that need to be discussed

Top left
   420	   165	     3 X
   351	   293	     9 X
   463	   153	    21 X
   352	   292	    43 X
   348	   231	   203 X
   347	   200	   286 X
   354	   166	   289 X
   178	    39	   296 X
    98	    45	   353 X
   153	   485	   431 X
   237	   560	   521 X
   400	   372	   555 X
   305	   700	   604 X
   361	   337	   634 X
   400	   347	   664 X
   369	   473	   712 X
   393	   421	   736 X
   280	   759	   745 X
   519	   274	   759 X
    83	    79	   865 X
   474	   429	   883 X
   483	   489	   921 X
   215	    68	  1032 X
   434	   328	  1047 X
   191	    44	  1049 X
   151	   111	  1049 X

Bottom left
    18	   726	   130 X
    60	   685	   235 X
     6	   707	   457 X
    22	   723	   477 X
   502	   910	   503 X
   196	   715	   536 X
   320	   915	   564 X
   362	   931	   586 X
   359	   888	   601 X
   366	   916	   630 X
   404	   990	   638 X
   344	   887	   728 X
   356	   852	   742 X
   281	   749	   761 X
   601	   829	   899 X
   398	   952	   937 X
   378	   922	   944 Y
   586	   720	   978 X
   368	   880	  1036 X

Top right
   974	   591	    19 X
   840	   583	    35 X
   991	   282	    62 X
   923	   104	    84 X
   872	   144	   101 X
   799	   117	   261 X
   988	   485	   270 X
   851	    45	   286 X
   765	   415	   440 X
   623	   434	   460 X
  1132	   621	   643 X
  1093	   587	   780 X
  1066	   542	   785 X
  1041	   595	   802 X
   968	   480	   833 X
   995	   478	   862 X
   670	   572	   888 X

Bottom right
   704	   665	    14 X
   961	   595	    39 X
   851	   584	    47 X
  1045	   654	   130 X
  1050	   630	   244 X
   801	   963	   306 X
   744	   880	   434 X
  1122	   806	   488 X
  1115	   642	   520 X
  1083	   642	   531 Z
   813	   954	   540 X
  1041	   791	   550 X
   921	   755	   620 X
   688	   781	   797 X
  1021	   668	   839 Z
  1036	   620	   832 X
  1059	   700	   838 Y
  1029	   794	   979 X































































































 

 
























