Coordinates for manual segmentation in ROI110

top left
   741	   824	    88
   558	   384	    92
   625	   156	    94
   694	   749	    96
   826	   841	   132
   760	   370	   178
   767	   365	   185
   938	   380	   190
   572	   909	   223
   360	   311	   238
   283	   377	   255
   241	   505	   306
   100	   307	   309
   243	   266	   328
   944	   550	   341
   223	   247	   365
   886	   432	   372
   210	   189	   391
   436	   204	   478
   506	   355	   540
   393	   138	   549
   135	   599	   560
   890	   906	   565
   273	   569	   594
   906	    26	   597
   197	   549	   598
   283	   559	   634
   788	    63	   651
   197	   487	   672
   210	   487	   720
   586	   915	   737
   376	   372	   748
   461	   291	   753
   794	   285	   761
   802	   240	   763
   709	   305	   767
   451	   273	   780
   361	   157	   789
   324	   187	   791
    39	   450	   794
   165	   428	   813
   388	   341	   854
   859	   275	   856
    95	   469	   884
   753	   228	   898
   925	   191	  1006
   346	   230	  1026
   379	   624	  1029
   850	   190	  1052
   787	   174	  1085
   423	    29	  1088
   410	   583	  1185
   345	   721	  1246
   568	   109	  1257
   349	   712	  1287
   259	   230	  1317
    68	   435	  1328

bottom left
   465	  1445	    56
   751	   833	    82
   835	   841	   137
   910	  1041	   162
   889	  1197	   175
   909	  1046	   185
   919	  1201	   189
   862	  1050	   199
   225	  1140	   298
   259	  1217	   382
   917	   877	   454
   908	  1411	   585
    50	  1037	   656
   688	  1451	   678
   674	  1406	   703
   520	  1427	   715
   471	  1306	   790
   543	  1392	   859
   886	  1329	   947
   941	  1358	   969
   845	  1098	  1022
   859	  1098	  1089
   572	  1487	  1096
   883	   970	  1238

top right
  1355	    52	     1
  1605	   514	     1
  1202	   103	    34
  1188	   749	   101
  1092	   508	   112
  1014	   412	   135
   948	   368	   135
  1224	    45	   136
   949	   381	   173
  1163	   120	   220
   944	   548	   338
  1737	   187	   345
   966	   456	   368
   889	   435	   377
  1142	    86	   382
  1106	   324	   415
   974	   594	   417
  1136	   505	   420
  1363	    90	   425
  1132	   490	   433
   975	   611	   434
  1166	   144	   435
  1159	   157	   474
  1651	   229	   524
  1065	   882	   526
  1126	   213	   570
  1347	   320	   590
   891	   913	   597
   902	    36	   598
   953	   937	   624
   852	   662	   631
  1067	   379	   637
  1182	    40	   664
  1014	    28	   700
  1028	   156	   759
  1674	   477	   764
  1415	   418	   795
  1159	   306	   839
  1682	   328	   924
  1194	    46	   936
  1146	   182	   963
  1390	   344	   978
  1158	   158	   982
  1218	    51	   984
  1272	   300	   986
   908	   199	   991
  1069	   229	  1008
  1119	   138	  1022
  1502	   390	  1028
  1264	   122	  1038
  1690	   835	  1044
  1382	   269	  1063
  1678	   931	  1067
  1631	   873	  1087
  1673	   934	  1090
  1157	   216	  1095
  1255	   218	  1097
  1551	   458	  1101
  1206	   140	  1122
  1323	   242	  1129
  1362	   308	  1144
  1444	   262	  1147
  1196	   183	  1152
  1674	   473	  1163
  1360	   281	  1175
  1468	   344	  1181
  1364	   310	  1187
  1705	   867	  1191
  1223	   197	  1227
  1257	   804	  1228
  1666	   716	  1237
  1699	   861	  1239
  1289	   239	  1243
  1684	   477	  1254
  1292	   773	  1260
  1280	   208	  1266
  1739	   606	  1283
  1272	   210	  1292
  1733	   502	  1302
  1047	   134	  1327
  1653	   893	  1330
  1696	   874	  1336
  1335	   222	  1357
   986	   833	  1359
  1133	   159	  1365
  1531	   518	  1398

bottom right:
  1690	  1590	     1
   983	  1005	    19
  1038	  1099	    27
   996	  1002	    42
   976	  1098	    43
  1231	  1703	    57
   973	  1005	    72
  1473	  1326	    97
  1440	  1303	   120
  1621	  1405	   155
   912	  1051	   157
  1223	  1735	   159
   889	  1216	   169
  1032	  1122	   171
  1264	  1656	   173
   874	  1048	   191
  1302	  1511	   193
  1158	  1111	   199
   993	  1201	   212
  1198	  1739	   225
  1617	  1400	   256
  1165	  1732	   293
  1331	  1315	   295
  1394	  1317	   320
  1668	  1398	   328
  1067	  1292	   333
  1163	  1529	   343
  1678	  1396	   360
  1072	  1680	   368
  1237	  1174	   393
  1445	  1360	   418
  1227	  1170	   429
   998	  1525	   432
  1072	   888	   512
  1737	  1405	   571
  1550	  1398	   571
   908	  1417	   585
   947	   955	   603
  1446	  1295	   604
  1427	  1333	   618
  1648	  1523	   620
  1037	   976	   628
  1298	  1206	   658
  1509	  1304	   660
  1596	  1684	   710
  1144	  1077	   759
  1095	  1291	   768
  1353	  1157	   786
  1402	  1106	   799
   978	  1253	   819
   935	  1398	   859
   988	  1264	   859
  1108	  1206	   871
  1720	  1011	   877
  1008	  1221	   891
   976	  1311	   928
  1270	  1070	   968
   887	  1328	   969
   934	  1365	   970
  1625	  1053	   976
  1151	   998	   977
  1246	  1238	  1001
   853	  1084	  1021
  1646	  1018	  1051
  1682	   967	  1058
  1635	   884	  1093
   850	  1064	  1115
  1411	  1251	  1141
  1633	   976	  1179
   876	   965	  1251
  1649	   903	  1331
   990	   833	  1362












