Read prefs: /net/home/grothama/.config/blender/2.79/config/userpref.blend
Info: Total files 0 | Changed 0 | Failed 0
Path segment lengths: Min:  0.0001499718359392936 @ 4769  Max:  0.0002989059191619967 @ 4491  Mean:  0.00015010836076389538
Total path length:  1.2358421341691506   with an interpolation resolution of:  20

Blender quit
